[adenium_0]
coordinates = "cartesian"
material_budget = 0.00075
number_of_pixels = 1024, 512
orientation = -0.882011deg,0.196467deg,0.768566deg
orientation_mode = "xyz"
pixel_pitch = 29.24um,26.88um
position = 1.65537mm,232.963um,0um
spatial_resolution = 5um,5um
time_resolution = 10us
type = "adeniumrawdataevent"

[TLU_0]
coordinates = "cartesian"
orientation = 0deg,0deg,0deg
orientation_mode = "xyz"
position = 0um,0um,16.2mm
role = "auxiliary"
time_resolution = 1ns
type = "tlu"

[adenium_1]
coordinates = "cartesian"
material_budget = 0.00075
number_of_pixels = 1024, 512
orientation = -0.442152deg,-0.3852deg,-0.0632545deg
orientation_mode = "xyz"
pixel_pitch = 29.24um,26.88um
position = 381.065um,487.548um,108mm
spatial_resolution = 5um,5um
time_resolution = 10us
type = "adeniumrawdataevent"

[adenium_2]
coordinates = "cartesian"
material_budget = 0.00075
number_of_pixels = 1024, 512
orientation = -1.73669deg,-0.523454deg,0.177216deg
orientation_mode = "xyz"
pixel_pitch = 29.24um,26.88um
position = 771.667um,59.974um,135mm
spatial_resolution = 5um,5um
time_resolution = 10us
type = "adeniumrawdataevent"

[H2M_0]
coordinates = "cartesian"
mask_file = "/home/teleuser/h2m/tb_desy_202311/masking.txt"
material_budget = 0.00075
number_of_pixels = 64, 16
orientation = 0.265738deg,-0.293297deg,-0.577255deg
orientation_mode = "xyz"
pixel_pitch = 35um,35um
position = -771.33um,323.855um,175mm
role = "dut"
spatial_resolution = 9um,9um
time_resolution = 1ns
type = "h2m"

[adenium_3]
coordinates = "cartesian"
material_budget = 0.00075
number_of_pixels = 1024, 512
orientation = 0deg,0deg,0deg
orientation_mode = "xyz"
pixel_pitch = 29.24um,26.88um
position = 0um,0um,202mm
role = "reference"
spatial_resolution = 5um,5um
time_resolution = 10us
type = "adeniumrawdataevent"

[adenium_4]
coordinates = "cartesian"
material_budget = 0.00075
number_of_pixels = 1024, 512
orientation = -0.035638deg,-1.28772deg,0.141177deg
orientation_mode = "xyz"
pixel_pitch = 29.24um,26.88um
position = 700.341um,66.398um,230mm
spatial_resolution = 5um,5um
time_resolution = 10us
type = "adeniumrawdataevent"

[adenium_5]
coordinates = "cartesian"
material_budget = 0.00075
number_of_pixels = 1024, 512
orientation = -0.021887deg,-2.15243deg,0.174867deg
orientation_mode = "xyz"
pixel_pitch = 29.24um,26.88um
position = 1.28536mm,-212.845um,335mm
spatial_resolution = 5um,5um
time_resolution = 10us
type = "adeniumrawdataevent"

[mp10_0]
coordinates = "cartesian"
material_budget = 0.00375
number_of_pixels = 120, 400
orientation = 180deg,0deg,0deg
orientation_mode = "xyz"
pixel_pitch = 165um,25um
position = 3.24207mm,-682.564um,400mm
spatial_resolution = 43um,14um
time_resolution = 200ns
type = "telepix2"

