[adenium_0]
coordinates = "cartesian"
material_budget = 0.00075
number_of_pixels = 1024, 512
orientation = -0.882011deg,0.196467deg,0.768566deg
orientation_mode = "xyz"
pixel_pitch = 29.24um,26.88um
position = 1.219mm,-244.042um,0um
spatial_resolution = 5um,5um
time_resolution = 10us
type = "adeniumrawdataevent"

[TLU_0]
coordinates = "cartesian"
orientation = 0deg,0deg,0deg
orientation_mode = "xyz"
position = 0um,0um,16.2mm
role = "auxiliary"
time_resolution = 1ns
type = "tlu"

[adenium_1]
coordinates = "cartesian"
material_budget = 0.00075
number_of_pixels = 1024, 512
orientation = -0.442152deg,-0.3852deg,-0.0632545deg
orientation_mode = "xyz"
pixel_pitch = 29.24um,26.88um
position = 111.102um,80.8um,24mm
spatial_resolution = 5um,5um
time_resolution = 10us
type = "adeniumrawdataevent"

[adenium_2]
coordinates = "cartesian"
material_budget = 0.00075
number_of_pixels = 1024, 512
orientation = -1.73669deg,-0.523454deg,0.177216deg
orientation_mode = "xyz"
pixel_pitch = 29.24um,26.88um
position = 410.485um,-351.675um,51mm
spatial_resolution = 5um,5um
time_resolution = 10us
type = "adeniumrawdataevent"

[adenium_3]
coordinates = "cartesian"
material_budget = 0.00075
number_of_pixels = 1024, 512
orientation = 0deg,0deg,0deg
orientation_mode = "xyz"
pixel_pitch = 29.24um,26.88um
position = 0um,0um,123mm
role = "reference"
spatial_resolution = 5um,5um
time_resolution = 10us
type = "adeniumrawdataevent"

[adenium_4]
coordinates = "cartesian"
material_budget = 0.00075
number_of_pixels = 1024, 512
orientation = -0.035638deg,-1.28772deg,0.141177deg
orientation_mode = "xyz"
pixel_pitch = 29.24um,26.88um
position = 588.095um,93.183um,149mm
spatial_resolution = 5um,5um
time_resolution = 10us
type = "adeniumrawdataevent"

[adenium_5]
coordinates = "cartesian"
material_budget = 0.00075
number_of_pixels = 1024, 512
orientation = -0.021887deg,-2.15243deg,0.174867deg
orientation_mode = "xyz"
pixel_pitch = 29.24um,26.88um
position = 584.817um,-56.808um,175mm
spatial_resolution = 5um,5um
time_resolution = 10us
type = "adeniumrawdataevent"

